…
``` r
# merge together
acc_together<-accel %>%
  left_join(demo, by = c("seqn" = "seqn"))%>% 
  drop_na()

acc_together
```

    ## # A tibble: 328,320 × 6
    ##     seqn minute value sex     age education             
    ##    <dbl>  <int> <dbl> <chr> <dbl> <chr>                 
    ##  1 62161      1 1.11  Male     22 High school equivalent
    ##  2 62161      2 3.12  Male     22 High school equivalent
    ##  3 62161      3 1.47  Male     22 High school equivalent
    ##  4 62161      4 0.938 Male     22 High school equivalent
    ##  5 62161      5 1.60  Male     22 High school equivalent
    ##  6 62161      6 0.145 Male     22 High school equivalent
    ##  7 62161      7 2.10  Male     22 High school equivalent
    ##  8 62161      8 0.509 Male     22 High school equivalent
    ##  9 62161      9 1.63  Male     22 High school equivalent
    ## 10 62161     10 1.20  Male     22 High school equivalent
    ## # ℹ 328,310 more rows
…
